tipo;ej0;ej1;ej2;ej3;ej4;ej5;ej6;ej7;ej8;ej9;ej10;media
seq;8'237866;8'693200;8'933920;8'967574;8'566406;8'633700;8'032503;8'197095;8'585141;8'737665;8'435964;8'578317
cpp1;8'191953;7'876153;8'429902;8'629055;8'671752;8'730567;7'947925;8'091212;8'433798;8'431569;8'705408;8'394734
omp1;8'148886;7'987549;8'661036;8'726693;8'635419;8'376443;7'957203;8'476795;8'900143;8'546849;8'782509;8'505064
cpp2;4'191571;4'990264;4'44408;5'081165;4'584215;5'223824;4'872474;4'995501;4'996338;4'410906;5'21639;4'881516
omp2;4'359335;5'909369;4'245235;5'915255;4'214612;6'162212;4'307243;6'446435;4'447063;5'876608;4'223949;5'174798
cpp3;5'346614;3'719118;4'302241;4'886391;3'272702;5'862375;3'184897;4'728528;4'159448;3'784496;5'29739;4'319759
omp3;3'199939;5'553593;3'615449;4'644159;4'450942;3'542635;5'516997;3'193252;4'828317;4'025123;3'959039;4'332951
cpp4;5'012555;2'775567;4'740318;4'093304;2'781478;5'503974;3'227485;3'749243;5'219704;2'806772;5'166894;4'006474
omp4;4'332101;4'020341;4'789351;2'735651;5'135553;3'67343;3'333531;5'509593;2'882141;4'077172;4'65549;4'081225
